<?xml version="1.0" encoding="UTF-8"?>
<CustomTab xmlns="http://soap.sforce.com/2006/04/metadata">
    <description>Clicking on this tab will clear all shared Veeva cache for the Salesforce Organization.</description>
    <frameHeight>600</frameHeight>
    <hasSidebar>true</hasSidebar>
    <label>Clear Veeva Cache</label>
    <mobileReady>false</mobileReady>
    <motif>Custom19: Wrench</motif>
    <scontrol>CLEAN_CACHE_BY_ORG</scontrol>
</CustomTab>
